{
  "navigation" : {
    "Index": {
      "title": "О нас",
      "href": "/",
      "subitems": false
    },
    "Catalog" : {
      "title": "Услуги",
      "href": "",
      "subitems": false
    },
    "About" : {
      "title": "Цены",
      "href": "",
      "subitems": false
    },
    "Contacts" : {
      "title": "Контакты",
      "href": "",
      "subitems": false
    }
  }
}
